{
  "type": "object",
  "required" : [
    "id",
    "list_id",
    "description",
    "name",
    "status_name",
    "checklists"
  ],
  "properties" : {
    "id" : { "type" : "integer" },
    "list_id" : { "type" : "integer" },
    "name" : { "type" : "string" },
    "description" : { "type" : "string" },
    "status_name" : { "type" : "string" },
    "checklists" : { "type" : "Array" }
  }
}
