{
  "type": "object",
  "required": ["errors"],
  "properties": {
    "errors" : {
      "type" : "object",
      "required" : [
        "user",
        "list"
      ],
      "properties" : {
        "user" : { "type" : "array" },
        "list" : { "type" : "array" }
      }
    }
  }
}