{
  "type": "object",
  "required": ["errors"],
  "properties": {
    "errors" : {
      "type" : "object",
      "required" : [
        "name",
        "email",
        "password"
      ],
      "properties" : {
        "name" : { "type" : "array" },
        "email" : { "type" : "array" },
        "password" : { "type" : "array" }
      }
    }
  }
}